﻿;
; Copyright (c) 2004-2014, Peek Traffic B.V.
;
; File: LOCAL_CC_TABLE.DAT
;
; Description:
;
;  Project                 : KLPDUB21
;  Program date            : 22-04-2021
;  Program version         : 1
;  Programmer              : AB
;
;  Country                 : Baltic
;  City                    : Klaipeda
;  Street                  : Dubysos g.
;  Street                  : 21 pereja
;
;  Controller type         : EC-2 SRM
;  12NC                    : 9586 161 97000
;  Serial number           : 1970
;
;  File created at         : 10/5/2021 2:55:02 PM
;  Database file           : C:\Program Files (x86)\EC-2 Configurator 1.5.009\vrips.mdb
;  Tool version            : 1.5.009
;
; History:
;
;

; **** Start Memo Field: LOCAL_CC_TABLE ****

;Seiko

:1 150 1080
:1 160 1080
:1 170 1100
:1 180 1070
:1 185 1050
:1 190 870
:1 200 975
:1 210 1000
:1 220 1000
:1 230 1050
:1 240 1210
:1 250 1265
:1 260 1315

; **** End Memo Field: LOCAL_CC_TABLE ****

