﻿NT("APP_TYPE.SYS",1){
D("SRM2");
}
NT("LANGUAGE.SYS",1){
D("LT");
}
NT("CLFIB.T",8){
D("-");
D("IMM MOVE");
D("DD MOVE");
D("PREVENT");
D("ISOLATE");
D("HOLD");
D("PV");
D("PED");
}
NT("DAY.I",7){
D("MON");
D("TUE");
D("WED");
D("THU");
D("FRI");
D("SAT");
D("SUN");
}
NT("DAYT.I",14){
D("MON");
D("TUE");
D("WED");
D("THU");
D("FRI");
D("SAT");
D("SUN");
D("ALL");
D("WOR");
D("WEE");
D("HOL");
D("BUE");
D("BUS");
D("SPE");
}
NT("DAYT2.I",14){
D("MONDAY");
D("TUESDAY");
D("WEDNESDAY");
D("THURSDAY");
D("FRIDAY");
D("SATURDAY");
D("SUNDAY");
D("EVERY DAY");
D("WORKDAY");
D("WEEKEND");
D("HOLIDAY");
D("LATE NIGHT SHOPPING");
D("SUNDAY SHOPPING");
D("SPECIAL");
}
NT("SDAY.T",15){
P(11);
D("HOLIDAY");
D("LATE NIGHT SHOPPING");
D("SUNDAY SHOPPING");
D("SPECIAL DAY");
}
NT("FC.T",21){
D("?");
D("STR");
D("WR");
D("ROG");
D("STRA");
D("RA");
D("STG");
D("PSG");
D("FG");
D("EG1");
D("WG");
D("EG2");
D("PEG");
D("SEG");
D("STA");
D("FA");
D("VA");
D("STRE");
D("CER");
D("STFLG");
D("FLG");
}
NT("FCXFL.T",1){
D("-FO");
}
NT("HFSO.T",14){
D("WG");
D("PEG");
D("NCHK");
D("VEH");
D("BICL");
D("PED");
D("PRTM");
D("REVD");
D("IRF2");
D("FLTA");
D("INDA");
D("INAE");
D("BOF");
D("NSF");
}
NT("KLC.T",2){
D("CLCK");
D("24H");
}
NT("MDAY.T",1){
D("-MTWTFSS12");
}
NT("MDAY2.T",1){
D("-MTWTFSSPP");
}
NT("MDF.T",4){
D("REQ");
D("GAP1");
D("GAP2");
D("REQ_R");
}
NT("MODE.T",9){
D("ALARM SUPERVISOR");
D("LAMPS OFF");
D("FLASHING");
D("FLASHING SWITCH ON");
D("SWITCH ON");
D("ALL RED");
D("CONTROL");
D("SWITCH OFF");
D("RILSA SWITCH OFF");
}
NT("MSG.M",4){
D("5:PARAMETER EDIT NOT ALLOWED.");
D("5:PARAMETER ACCESS NOT ALLOWED.");
D("1:             PIN-CODE OK.");
D("5:           PIN-CODE INCORRECT.");
}
NT("MTCF.T",32){
D("-");
D("PLAN");
D("TIMING SET");
D("PART TIME");
D("CLF PLAN");
D("ISOLATE");
D("AUDIBLE");
D("S1");
D("S2");
D("S3");
D("S4");
D("S5");
D("S6");
D("S7");
D("S8");
D("S9");
D("S10");
D("S11");
D("S12");
D("S13");
D("S14");
D("S15");
D("S16");
D("S17");
D("S18");
D("S19");
D("S20");
D("S21");
D("S22");
D("S23");
D("S24");
D("DIM");
}
NT("PER.T",2){
D("CON");
D("FLA");
}
NT("PL.I",49){
D("AMBER FLASHING");
D("PLAN 1");
D("PLAN 2");
D("PLAN 3");
D("PLAN 4");
D("PLAN 5");
D("PLAN 6");
D("PLAN 7");
D("PLAN 8");
D("PLAN 9");
D("PLAN 10");
D("PLAN 11");
D("PLAN 12");
D("PLAN 13");
D("PLAN 14");
D("PLAN 15");
D("PLAN 16");
D("PLAN 17");
D("PLAN 18");
D("PLAN 19");
D("PLAN 20");
D("PLAN 21");
D("PLAN 22");
D("PLAN 23");
D("PLAN 24");
D("PLAN 25");
D("PLAN 26");
D("PLAN 27");
D("PLAN 28");
D("PLAN 29");
D("PLAN 30");
D("PLAN 31");
D("PLAN 32");
D("PLAN 33");
D("PLAN 34");
D("PLAN 35");
D("PLAN 36");
D("PLAN 37");
D("PLAN 38");
D("PLAN 39");
D("PLAN 40");
D("PLAN 41");
D("PLAN 42");
D("PLAN 43");
D("PLAN 44");
D("PLAN 45");
D("PLAN 46");
D("PLAN 47");
D("PLAN 48");
}
NT("PLTY.T",2){
D("FIXED CYCLE");
D("VEHICLE ACTUATED");
}
NT("SGRW.T",3){
D("END MIN RED");
D("START RED");
D("START AMBER");
}
NT("TBUCH.T",18){
D("PLAN %I1");
D("MODE %I1");
D("REPORT %I1-%I2-%I3-%I4");
D("XP REPORT %I1,%I2");
D("%X1%P2");
D("AMS %I1-%I2-%I3-%I4");
D("LAMP %L1 %M2");
D("DET. %D1 %R2");
D("OMS ERR %O1 (%I2)");
D("ERR AA206-%I1");
D("ERR OMSU-%I1");
D("ERR OCMU-%I1");
D("ERR IO1609-%I1");
D("ERR IO_GP-%I1");
D("%E2 ED16-%I1");
D("%E3 LCM-%I1-%I2");
D("ERR UNIT-%I1-%I2-%I3-%I4");
D("APPL %I1-%I2-%I3-%I4");
}
NT("TBUCH1.T",9){
D("%X2S0:LAMPS OFF");
D("%X2S1:LAMPS OFF");
D("%X2S2:FLASH");
D("%X2S3:FLASH");
D("%X2S4:SWITCH ON");
D("%X2S5:ALL RED");
D("%X2S6:CONTROL");
D("%X2S7:SWITCH OFF");
D("%X2S8:ERROR SWITCH OFF");
}
NT("TBUCH16.T",17){
P(1);
D("LCM-%I2-%I4 %E3");
D("ED316-%I2 %E3");
D("IO1609-%I2 %E3");
D("IOGP-%I2 %E3");
D("VCU-%I2 %E3");
D("OMSU-%I2 %E3");
D("OCMU-%I2 %E3");
D("AA206-%I2 %E3");
D("IO1616-%I2 %E3");
D("IOTU-%I2 %E3");
D("MTS4BP-%I2 %E3");
D("MMI840-%I2 %E3");
D("MP-%I2 %E3");
D("DIM %E3 (%I4)");
D("WDS AP-%I2 %E3");
D("UG405OTU-%I2 %E3");
}
NT("TBUCH2.T",256){
D("000:POWERFAIL");
D("001:MAINS LOW");
D("002:CPU-B CRC CODE");
D("003:CPU-B CRC DATA");
D("004:CPU-B LCM");
D("005:CPU-B OVERLOAD");
D("006:CPU-B LCM DIAG");
D("007:CPU-B LOT SLOW");
D("008:CPU-A ALARM");
D("009:XP ALARM");
D("010:USER ALARM");
D("011:MAINS SYNC");
D("012:LV");
D("013:CPU-B LOC-LOC");
D("014:CPU-B COM CPU-A");
D("015:CPU-B PHAS");
D("016:CPU-A (INT)");
D("017:APPL. ALARM");
D("018:SELF-TEST");
D("019:CPU-A LCM DIAG");
D("020:CPU-A LCM CNFG");
D("021:LCM CONF ERR");
P(24);
D("024:CPU-A CONF CPU-B");
D("025:CPU-A COM CPU-B");
D("026:CPU-A (EXT)");
D("027:CPU-A (EXT)");
D("028:CPU-A (EXT)");
P(50);
D("050:CIF APPL ERR");
D("051:GUS-WUS %S2 %S3");
D("052:DEADLOCK %S2");
D("053:EXECUTION TIME %S2");
P(60);
D("060:MAN.CONTROL %N2");
D("061:BLOCK FIX. %I2");
D("062: MAN.CONTROL ERR");
P(64);
D("064:CYCLE TIMEOUT");
D("065:CONFLICT");
D("066:MINIMUM GREEN");
D("067:APPL. DEADLOCK");
D("068:APPL. ERR");
D("069:MINIMUM RED");
D("070:PU ERR");
D("071:PU ERR");
D("072:APPL. LOGIC");
D("073:APPL. SWON");
P(80);
D("080:OTU %I2-%I3 %E4");
D("081:PHASE INH %S2 %N3");
P(99);
D("099:LOGBOOK CLEARED");
D("100:CPU-A XLM %I2");
D("101:CONFLICT");
D("102:OMS ERROR");
D("103:WORK SW ON");
D("104:WORK SW OFF");
D("105:VCU-%I2 %E3");
D("106:DIAL CCS %F2 %I3");
D("107:CPU-C CNF ERR");
D("108:CPU-C COM %E2");
D("109:CPU-C VERSION %I2");
D("110:PARAM LOG %E2");
D("111:RAILWAY ERROR");
D("112:RESET RAILWAY");
D("113:DUMP STATE %I2");
P(115);
D("115:WEATHER STATION OK");
D("116:WEATHER STATION NO UPDATE");
D("117:WEATHER STATION ERROR");
P(130);
D("130:CPU-C ABORT %I2");
D("131:CPU-C ERROR %I2");
D("132:CPU-C RESET %I2");
P(150);
D("150:DCF-77 ERR");
D("151:BATTERY ERR");
P(177);
D("177:CPU-B DOWNLOAD STARTED");
D("178:CPU-B DOWNLOAD FAILED");
D("179:CPU-B DOWNLOAD OK");
D("180:DIMMING FAIL");
D("181:DIMMING OK");
D("182:MANSTEP ACTIVE");
D("183:MANSTEP INACTIVE");
D("184:MANSTEP FAIL");
D("185:IMFLOW-%I2 REQ=OFF");
D("186:IMFLOW-%I2 REQ=STANDBY");
D("187:IMFLOW-%I2 REQ=UTC");
D("188:IMFLOW-%I2 REQ=LOCAL");
D("189:IMFLOW-%I2 LOCAL");
D("190:IMFLOW-%I2 UTC");
D("191:IMFLOW-%I2 CONNECTED");
D("192:IMFLOW-%I2 DISCONNECTED");
D("193:IMFLOW-%I2 DEADLOCK-%S3-%I4");
D("194:IMFLOW-%I2 CONFLICT-%S3-%S4");
D("195:IMFLOW-%I2 MAX.DEADLOCK-%I3");
D("196:IMFLOW-%I2 MAX.CONFLICT-%I3");
D("197:IMFLOW-%I2 LOCAL->UTC");
D("198:IMFLOW-%I2 FORCE LOCAL %N3");
P(200);
D("200:DCF-77 OK");
D("201:BATTERY OK");
D("202:RESET ALARMS");
D("203:DET. UNIT OK");
D("204:RESET DETAL");
D("205:PT VEH. LOST");
D("206:LAMP AUTOSET");
D("207:RESET PREF MAL");
D("208:LAMP AUTOSET ERR");
D("209:DIAL BACK %N2");
D("210:EMERG. PR. REQ %N2");
D("211:EMERGENCY PROGRAM %I3 %N2");
D("212:TIME MASTER ERROR");
D("213:AUTO-RESET");
D("214:AUTO-RESET LOCK");
D("215:LAMP AUTOSET OK");
D("216:TDC DISK FULL %I2");
D("217:MIMIC MODE %N2");
D("218:CPU-A/B ID %I2-%I3");
D("219:EMERGENCY PR. %I2, %I3, %I4");
D("SPOT: GPS=NULL");
D("SPOT: GPS=LOCAL");
D("SPOT: GPS=CENTRAL");
D("SPOT: GPS=FLASH");
D("SPOT: GPS=XXX");
D("SPOT: COMERR");
D("SPOT: WATCHDOG-%I2");
D("SPOT: KFC-%S2-%S3");
D("SPOT IS CENTRAL");
D("SPOT: SW=OFF");
D("SPOT: SW=ON");
D("231:SUPPRESS UTC <-> PSVP LOGGING %N2");
D("232:UG405 Licence error");
D("233:XPRIO(%S1) DB FULL");
D("234:PTP ILL(%I2) PORT");
D("235:WAITTIME %E2");
D("236:PTP(%I2) %E3");
D("237:UPS %N2");
D("238:DOOR %Q2");
D("239:DOOR CP %Q2");
D("240:ENERGY COMP. %Q2");
D("241:TRY");
D("242:ZAP");
D("243:WATCHDOG %I2 %I3");
D("244:BACKUP SUPPLY %I2");
D("245:SOFT RESET");
D("246:RESET PROG PARM");
D("247:PROGRAM %I2");
D("248:RESET PROGRAM");
D("249:RESET CPU");
D("250:MAINS OFF");
D("251:OLD TIME");
D("252:NEW TIME");
D("253:MAINS ON");
D("254:CP ALARM");
D("255:FATAL ALARM");
}
NT("TBUCH3.T",17){
D("%I2.00:FLASH");
D("%I2.01:FLASH");
D("%I2.02:FATAL ALARM");
D("%I2.03:SG MIN TIMER");
D("%I2.04:SG MAX TIMER");
D("%I2.05:SG SEQUENCE");
D("%I2.06:SG CONFLICT");
D("%I2.07:SG (INT)");
D("%I2.08:LOV-LOV");
D("%I2.09:HALF-WAVING");
D("%I2.10:CPU-B (INT)");
D("%I2.11:OMS-ERR");
D("%I2.12:LAMP ERR");
D("%I2.13:OCMU ERROR");
D("%I2.14:XP SEQUENCE");
D("%I2.15:XP MIN TIMER");
D("%I2.16:XP MAX TIMER");
}
NT("TBUCH5.T",8){
D("SWOF XP %I2-%I3");
D("CONFLICT %S2-%S3-%I4");
D("SG MIN %S2-%I3-%I4");
D("SG MAX %S2-%I3-%I4");
D("SG SEQ %S2-%I3-%I4");
D("XP MIN %I2-%I3-%I4");
D("XP MAX %I2-%I3-%I4");
D("XP SEQ %I2-%I3-%I4");
}
NT("TBUCHF.T",10){
D("Visi");
D("Kontrole / planas");
D("Sistemos zinutės");
D("Sankrizos zinutes");
D("Darbinis rezimas");
D("Supervizorius");
D("Lampos");
D("Detektoriai");
D("LCM korteliu klaidos");
D("Kortos");
}
NT("TPGF.T",4){
D("SKAICIOKLIS IS.");
D("INTENSYVUMAS");
D("PEREJA I RAUDONA");
D("RAUDONO POKYCIAI");
}
NT("TPGM.T",3){
D("STOP SKAICIOKLIS");
D("VISI INTERVALAI");
D("NUOLATINIS");
}
NT("TSON.I",4){
D("MIRKSANTIS");
D("NUOLATINIS GELTONAS");
D("VISI RAUDONI");
D("MAX DUMP");
}
NT("E2ADCOM.IDX",16){
D("CENTRAL_PHONE");
D("CENTRAL_IP_ADDRESS");
D("PORTNUMBER");
D("TRIGGEREVENTS");
D("DIAL_BACK_TIME");
D("LOG_DATACOMEVENTS");
D("VRI_IP_ADDRESS");
D("TO_COMMUNICATIONS");
D("TO_MODEM");
D("TO_PPP");
D("TO_TRIGGERPORT");
D("TO_RESPONSE");
D("RETRY_TIME");
D("RETRY_MAXIMUM");
D("RESERVED14");
D("RESERVED15");
}
NT("WORK.T",2){
D("OFF");
D("ON");
}
NT("XABC.T",5){
D("SG time error     : %s %d %d");
D("SG sequence error : %s %d %d");
D("SG conflict       : %s %s %d");
D("XP time error     : %d %d");
D("XP sequence error : %d %d");
}
NT("XDER.T",1){
D("--FONS");
}
NT("XDES.T",1){
D("01");
}
NT("XDES1.T",32){
D(".");
D("*");
D("F");
D("F");
D("B");
D("B");
D("F");
D("F");
D("O");
D("O");
D("F");
D("F");
D("O");
D("O");
D("F");
D("F");
D("U");
D("A");
D("U");
D("A");
D("U");
D("A");
D("U");
D("A");
D("U");
D("A");
D("U");
D("A");
D("U");
D("A");
D("U");
D("A");
}
NT("XLCM2STS.T",4){
D("Not configured");
D("OK");
D("Not available");
D("Error");
}
NT("XLCMCFG.T",6){
D("RRAG 230V");
D("RRAG 42V");
D("NRAG 230V");
D("NRAG 42V");
D("RCM 230V");
D("RCM 42V");
}
NT("XLM.T",8){
D("OK");
D("ERR");
D("EL1");
D("ERR");
D("EL2");
D("ERR");
D("EL2");
D("ERR");
}
NT("XOK.T",2){
D("OK");
D("ERR");
}
NT("XON.T",2){
D("OFF");
D("ON");
}
NT("XOPEN.T",2){
D("CLOSED");
D("OPEN");
}
NT("XSG.T",9){
D("AMBER");
D("RED");
D("RED/AMB");
D("GREEN");
D("OFF");
D("AMB FLASH");
D("STEADY AMB");
D("SWITCH OFF");
D("GREEN FLASH");
}
NT("XSW2.T",3){
D("VA");
D("OFF");
D("ON");
}
NT("XSW.T",3){
D("-");
D("OFF");
D("ON");
}
NT("XURLPAR.T",6){
D("Invalid data");
D("User not authorized to modify this parameter");
D("Level 3 access required");
D("Internal error: Unknown parameter");
D("Data above upper limit");
D("Data below lower limit");
}
NT("WAITTYPE.T",3){
P(1);
D("LOW");
D("HIGH");
}
NT("TRAFFICCAT.T",1){
D("-PEG");
}
NT("DSIEVTYPE.T",1){
D("-ABUT");
}
NT("PUNCCLASS.T",1){
D("-NEOL");
}
NT("BOOL.T",2){
D("NO");
D("YES");
}
NT("REFRESH.T",2){
D("100 [ms]");
D("1 [s]");
}
NT("XAUTOSET.T",4){
D("DONE");
D("BUSY");
D("WAIT");
D("ERR");
}
NT("OTUINV.T",4){
D("Neither");
D("Control");
D("Reply");
D("Control and Reply");
}
NT("OTUUS.T",4){
D("Not active");
D("Integral");
D("Discrete");
D("UG405");
}
NT("UG405OPM.T",7){
D("None");
D("Standalone");
D("Monitor");
D("UTC control");
D("Test");
D("Off-line");
D("Initial");
}
NT("UG405CONF.T",10){
D("ConfigLastChanged");
D("InstationAddress");
D("InstationPort");
D("OperationModeTimeout");
D("ScootSampleReportInterval");
D("ReplyByException");
D("ReplyByExceptionRetryDelay");
D("ReplyByExceptionRetryCount");
D("ReplyByExceptionKeepAlive");
D("ReplyByExceptionResendHoldoff");
}
NT("UG405CONFABBR.T",10){
D("ConfLastChange");
D("InstationAddr");
D("InstationPort");
D("OpModeTimeout");
D("ScootSampleRepIv");
D("ReplyByException");
D("RBERetryDelay");
D("RBERetryCount");
D("RBEKeepAlive");
D("RBEResendHoldoff");
}
NT("STGINFO.IDX",7){
D("current stage");
D("previous stage");
D("next stage");
D("curr stage timer [100 ms]");
D("privilege timer [100 ms]");
D("curr cycle timer [100 ms]");
D("curr cycle time [100 ms]");
}
NT("TLCFAULTACT.IDX",2){
D("list active fault codes");
D("list active fault abbrev");
}
NT("TLCSTAT.IDX",4){
D("ACTUAL");
D("CONTROL_PANEL");
D("CENTRAL");
D("SUPERVISOR");
}
NT("SON.T",5){
D("OFF");
D("FLASH1");
D("FLASH2");
D("ALL RED");
D("ON");
}
NT("NR0ANY.T",1){
D("ANY (0)");
}
NT("UG405LICSTAT.T",3){
D("Pending");
D("Success");
D("Failure");
}
NT("M001.M",5){
D("2,FUNKC.");
D("3,ZURN.");
D("27,RODYTI");
D("3200,PRISIJ.");
D("4,MENIU");
}
NT("M002.M",8){
D("1340,Valdymo laikrodis/testinis [<pKLC><-4vSF.SYS/CLKC>]");
D("1350,Tikrint detekcijos aliarma ");
D("1360,Atstatyti detektoriaus aliarmus");
D("1590,Veikimo rezimas be lempu");
D("1370,Atstatyti klaidas");
D("2470,Rankinis plano parinkimas");
D("2310,Trigger AUTOSET algorithm");
D("");
}
NT("M003.M",17){
D("1250,Programa");
D("1260,Signalines grupes");
D("1310,Parametru keitimas");
D("1240,Klaidu santrauka");
D("1060,Sepervizoriaus zurnalas");
D("");
D("");
D("");
D("");
D("");
D("");
D("");
D("");
D("");
D("");
D("");
D("1390,Alert+");
}
NT("M004.M",6){
D("5,Parametrai");
D("6,Servisas");
D("7,Eismo skaiciavimas");
D("1040,Data ir laikas");
D("9030,Displejaus rodymo kampas");
D("25,Programavimas");
}
NT("M005.M",11){
D("28,Signaliniu grupiu laikas");
D("2200,Detekcijos nustatymai");
D("57,V-plan parametrai");
D("2370,Vartotojo parametrai");
D("2140,Plano parinkimas (savaites diena)");
D("2340,Plano parinkimas (specialios dienos)");
D("21,Koordinavimas(C-O-S)");
D("");
D("");
D("");
D("");
}
NT("M006.M",15){
D("8,I/O statusas");
D("1230,Sistemas statusas");
D("9900,Modulio statusas");
D("3210,Programos versija");
D("3220,Tinklo konfiguravimas");
D("26,Eurodetektorius");
D("9050,Systemos velevele");
D("");
D("");
D("");
D("1210,Faze stage control (FCS)");
D("1220,Koordinuotos fazes (FCX)");
D("");
D("");
D("");
}
NT("M007.M",3){
D("");
D("10,Eismo skaiciavimas");
D("");
}
NT("M008.M",6){
D("1000,Detektoriai");
D("1010,Signalines grupes");
D("1020,Iejimas");
D("1030,Isejimas");
D("1280,Lampas");
D("");
}
NT("M009.M",8){
D("1400,Talpos nustatymas");
D("1410,Slenkscio reiksmie");
D("1460,Ribines vertes");
D("1470,Pataisa vertybes");
D("1430,Laiko korekcija/dienos registracija");
D("1420,Rankiniu budu");
D("1440,Sign preruntime");
D("1450,Specialios dienos");
}
NT("M010.M",4){
D("4000,Aktualios skaitykliu reiksmes");
D("4010,Skaiciuojamos duomenis");
D("4020,Bendri nustatymai");
D("4030,Individualus nustatymai");
}
NT("M011.M",3){
D("3130,Skaiciuojamos duomenis");
D("3120,Nustatymai");
D("3110,Detektoriai");
}
NT("M016.M",5){
D("5210,Statusas");
D("");
D("");
D("");
D("");
}
NT("M021.M",3){
D("2610,Cikla laikas");
D("2620,Offsets");
D("2460,Signaliniu grupiu laikas");
}
NT("M025.M",4){
D("7040,Fazes");
D("29,Sistema");
D("7020,Signalines grupes");
D("7030,Detektoriai");
}
NT("M026.M",3){
D("1620,Ploksciu nustatymai");
D("1610,Kilpu nustatymai");
D("2730,Kilpu poru nustatymai");
}
NT("M027.M",5){
D("9000,Signalines grupes");
D("9010,Detektoriu jungykliai (swico)");
D("9020,Detektoriu statusas");
D("");
D("9480,Stream / Intersection data");
}
NT("M028.M",8){
D("2230,Minimalus signaliniu grupiu laikas");
D("67,Signalinu grupiu laikas");
D("2410,Tarp zaliuju laikas");
D("2420,Tarp raudonu laikas");
D("2430,Uzdelsto starto laikas");
D("2440,Suletinto uzdelsimo laikas");
D("2450,Early cut-off laikas");
D("2480,Papildomas saugumo laikas");
}
NT("M029.M",2){
D("7010,Startine programa");
D("7050,Mirgejimo daznumas");
}
NT("M049.M",7){
D("9500,OTU-1 status");
D("9510,OTU-2 status");
D("9520,OTU-3 status");
D("9530,OTU-4 status");
D("9540,OTU bit inversion");
D("9550,UG405 Status");
D("9560,UG405 Configuration");
}
NT("M057.M",6){
D("2350,V-plan parametrai (1..8)");
D("2360,V-plan parametrai  (9..16)");
D("2640,V-plan parametrai  (17..24)");
D("2650,V-plan parametrai  (25..32)");
D("2660,V-plan parametrai  (33..40)");
D("2670,V-plan parametrai  (41..48)");
}
NT("M067.M",3){
D("4140,Minimum green times");
D("4150,Maximum green times");
D("4160,Alternative maximum green times");
}
NT("E01.M",5){
D("A,ESC","V-10,>- 1.","V+10,<0 +","V-1,>- 0.","V+1,<1 +");
}
NT("E1.M",7){
D("A,ESC","V-100,>- 1","V+100,<0 +","V-10,>- 1","V+10,< +","V-1,>- 0.","V+1,<1 +");
}
NT("E10.M",5){
D("A,ESC","V-10,>- 1","V+10,<0 +","V-1,>- 1","V+1,< +");
}
NT("E100.M",8){
D("A,ESC","V-100,>- 10","V+100,<0 +","V-10,>- 1","V+10,<0 +","A,ESC","V-1,>- 1","V+1,< +");
}
NT("E1000.M",10){
D("A,ESC","V-1000,>- 10","V+1000,<00 +","V-100,>- 10","V+100,<0 +","A,ESC","V-10,>- 1","V+10,<0 +","V-1,>- 1","V+1,< +");
}
NT("E1A.M",5){
D("A,ESC","V-100,>- 1","V+100,<0 +","V-10,>- 1","V+10,< +");
}
NT("EDA.M",9){
D("B0,PIR","B1,ANT","B2,TRE","B3,KET","B4,PEN","B5,SES","B6,SEK","B7,OP1","B8,OP2");
}
NT("EDA1.M",7){
D("B0,PIR","B1,ANT","B2,TRE","B3,KET","B4,PEN","B5,SES","B6,SEK");
}
NT("EDA3.M",10){
D("B0,PIR","B1,ANT","B2,TRE","B3,KET","B4,PEN","B5,SES","B6,SEK","B7,D01","B8,D02","B9,D03");
}
NT("EDE.M",3){
D("A,ESC","V-1,>- DE","V+1,<T +");
}
NT("EDF.M",5){
D("A,ESC","B0,REQ","B1,GAP1","B2,GAP2","B3,REQ_R");
}
NT("EFA.M",3){
D("A,ESC","V-1,>- FUNKC","V+1,<IJOS +");
}
NT("EHM.M",5){
D("A,ESC","V-HM1,>- VA","V+HM1,<L +","V-HM2,>- MI","V+HM2,<N +");
}
NT("EHMS.M",7){
D("A,ESC","V-HMS1,>- VA","V+HMS1,<L +","V-HMS2,>- MI","V+HMS2,<N +","V-HMS3,>- SE","V+HMS3,<K +");
}
NT("EMA.M",3){
D("A,ESC","V-1,>- BUK","V+1,<LE +");
}
NT("ENOO.M",4){
D("A,ESC","W=0,NEURALUS","W=1,ISJ","W=2,IJ");
}
NT("EOO.M",3){
D("A,ESC","V-1,ISJ","V+1,IJ");
}
NT("ESG.M",3){
D("A,ESC","V-1,>- S","V+1,<G +");
}
NT("ESGO.M",15){
D("A,ESC","B0,WG","B1,PEG","B2,NCHK","B3,VEH","B4,BICL","B5,PED","B6,PRTM","B7,REVD","B8,IRF2");
D("B9,FLTA","B10,INDA","B11,INAE","B12,BOF","B13,NSF");
}
NT("EVA.M",3){
D("A,ESC","V-1,>- REI","V+1,<KSME+");
}
NT("EXFL.M",3){
D("A,ESC","B0,FIX","B1,OPT");
}
NT("EYMD.M",7){
D("A,ESC","V-YMD1,>- MET","V+YMD1,<AI +","V-YMD2,>- MEN","V+YMD2,<UO +","V-YMD3,>- DIE","V+YMD3,<NA +");
}
NT("EYWD.M",7){
D("A,ESC","V-YWD3,>- DIE","V+YWD3,<NA +","V-YWD2,>- MEN","V+YWD2,<UO +","V-YWD1,>- ME","V+YWD1,<TAI+");
}
NT("EPUNC.M",4){
D("B0,NOINFO","B1,EARLY","B2,ONTIME","B3,LATE");
}
NT("ETCAT.M",3){
D("B0,PT","B1,ES","B2,GD");
}
NT("EDSIE.M",4){
D("B0,AREA","B1,BUSSTOP","B2,UPDATE","B3,TIMEOUTS");
}
NT("EOTUINV.M",3){
D("A,ESC","B0,Control","B1,Reply");
}
NT("MENU.M",20){
D("1","2","3","4","5","6","7","8","9","10");
D("11","12","13","14","15","16","17","18","19","20");
}
NT("NONE.M",5){
D("","","","","");
}
NT("PIN.M",5){
D("1","2","3","4","5");
}
NT("QUES.M",4){
D("","A,NE","","N,TAIP");
}
NT("VEDM1.M",10){
D("E,KEISTI","I-,/\\","I+,\\/","P-1, <","P+1, >","U,RESET","I-,/\\","I+,\\/","I-6,//\\\\","I+6,\\\\//");
}
NT("VEDM2.M",5){
D("E,KEISTI","I-,/\\","I+,\\/","","U,RESET");
}
NT("VIDM.M",3){
D("E,KEISTI","I-,/\\","I+,\\/");
}
NT("VIDM1.M",5){
D("E,KEISTI","I-,/\\","I+,\\/","C-, <","C+, >");
}
NT("VIDM2.M",5){
D("E,KEISTI","I-,/\\","I+,\\/","I-6,//\\\\","I+6,\\\\//");
}
NT("VIDM4.M",10){
D("E,KEISTI","I-,/\\","I+,\\/","I-4,//\\\\","I+4,\\\\//","E,KEISTI","I-,/\\","I+,\\/","C-, <","C+, >");
}
NT("VIDM6.M",10){
D("E,KEISTI","I-,/\\","I+,\\/","I-6,//\\\\","I+6,\\\\//","E,KEISTI","I-,/\\","I+,\\/","C-, <","C+, >");
}
NT("VIDM6A.M",10){
D("E,KEISTI","I-,/\\","I+,\\/","C-, <","C+, >","E,KEISTI","I-,/\\","I+,\\/","I-6,//\\\\","I+6,\\\\//");
}
NT("VIDM7.M",10){
D("E,KEISTI","I-,/\\","I+,\\/","C-, <","C+, >","E,KEISTI","I-5,//\\\\","I+5,\\\\//","C-4,  <<","C+4,  >>");
}
NT("VIEW.M",5){
D("E,KEISTI","","","","N,[x]=>");
}
NT("VIFL5.M",5){
D("I-,/\\","I+,\\/","I-5,//\\\\","I+5,\\\\//","I-T,ATGAL");
}
NT("VIFL6.M",5){
D("I-,/\\","I+,\\/","I-6,//\\\\","I+6,\\\\//","I-T,ATGAL");
}
NT("VMAT.M",5){
D("E,KEISTI","R-,/\\","R+,\\/","C-, <","C+, >");
}
NT("VROW.M",3){
D("E,KEISTI","R-,/\\","R+,\\/");
}
NT("VSGSG.M",5){
D("E,KEISTI","R-,>- NU","R+,<O +","C-,>- IK","C+,<I +");
}
NT("EUG405OPM.M",5){
D("A,ESC","W=1,>Standalo","<ne      ","W=5,>Offline","<       ");
}
NT("VIDMUG405.M",5){
D("I-T,TOP","I-5,//\\\\","I+5,\\\\//","C-10,OTU","C+10,UG405");
}
CALL("I1.P","CLFIB,CLFIB.T");
CALL("I1.P","FC,FC.T");
CALL("M1.P","FCXFL,FCXFL.T");
CALL("M2.P","HFSO,HFSO.T");
CALL("I1.P","KLC,KLC.T");
CALL("M1.P","MDAY,MDAY.T");
CALL("M1.P","MDAY2,MDAY2.T");
CALL("M2.P","MDF,MDF.T");
CALL("I1.P","MODE,MODE.T");
CALL("M2.P","MSG,XSG.I");
CALL("I1.P","MTCF,MTCF.T");
CALL("NO.P","-");
CALL("I1.P","PER,PER.T");
CALL("I1.P","PLANI,PL.I");
CALL("I1.P","PLTY,PLTY.T");
CALL("I1.P","SGRW,SGRW.T");
CALL("I1.P","TPGF,TPGF.T");
CALL("I1.P","TPGM,TPGM.T");
CALL("I1.P","WORK,WORK.T");
CALL("M1.P","XDER,XDER.T");
CALL("M1.P","XDES,XDES.T");
CALL("I1.P","XDES1,XDES1.T");
CALL("I1.P","XDETI,XDET.I");
CALL("I1.P","XLCM2STS,XLCM2STS.T");
CALL("I1.P","XLCMCFG,XLCMCFG.T");
CALL("I1.P","XLM,XLM.T");
CALL("I1.P","XOK,XOK.T");
CALL("I1.P","XON,XON.T");
CALL("I1.P","XOPEN,XOPEN.T");
CALL("I1.P","XSG,XSG.T");
CALL("I1.P","XSGI,XSG.I");
CALL("I1.P","XSW,XSW.T");
CALL("I1.P","SDAY,SDAY.T");
CALL("I1.P","TBUCHF,TBUCHF.T");
CALL("I1.P","WAITTYPE,WAITTYPE.T");
CALL("M1.P","DSIEVTYPE,DSIEVTYPE.T");
CALL("M1.P","TRAFFICCAT,TRAFFICCAT.T");
CALL("M1.P","PUNCCLASS,PUNCCLASS.T");
CALL("I1.P","BOOL,BOOL.T");
CALL("I1.P","REFRESH,REFRESH.T");
CALL("I1.P","XAUTOSET,XAUTOSET.T");
CALL("I1.P","OTUINV,OTUINV.T");
CALL("I1.P","OTUUS,OTUUS.T");
CALL("I1.P","UG405OPM,UG405OPM.T");
CALL("I1.P","SON,SON.T");
CALL("I1.P","NR0ANY,NR0ANY.T");
CALL("I1.P","UG405LICSTAT,UG405LICSTAT.T");
IDX("XDETC1.R11","DAY.I");
IDX("XDETC2.R11","DAY.I");
MMI("1000,0,5,m=VIDM6.M,d1=5");
T("DD.M"){
D(",<-7t*XDET.I>");
D(",<pXDES><-3v*XDET.STS> <pR2><6v*XDET.TMR> <pXDER><v*XDET.STS> <v*XDETE.STS>");
D("ENOO.M,<pXSW><-5v*XDET.R20>");
D("EHM.M,<pHM><5v*XDETO.R11>");
D("EHM.M,<pHM><5v*XDETN.R11>");
}
T("CD.M"){
D("DET");
D("UZIM  LAIKAS  KLAI  VEST");
D("PAKEITIMAS");
D("TBG");
D("TOG");
}
MMI("1010,0,2,m=VIFL6.M,d1=2");
T("DD.M"){
D(",SG     BUKLE      LAIKAS");
D(",<-5i> <pXSG><-10v*XSG.CSC> <pR2><7vXSG.TMR>");
}
MMI("1020,0,5,m=VIDM2.M,d1=2");
T("DD.M"){
D(",<-20i> <5v*XIN.STS>");
D("ENOO.M,<pXSW><-5v*XIN.R20>");
}
T("CD.M"){
D("IVESTES      STATUSAS");
D("PAKEIT.");
}
MMI("1030,0,2,m=VIDM2.M,d1=2");
T("DD.M"){
D(",IEJIMAS                           BUKLE");
D(",<-30i> <6v*XOUT.CSC>");
}
MMI("1040,0,11,m=VROW.M,d1=4,i1=2");
T("DD.M"){
D(",<*40aLAIKAS IR DATA>");
D(",");
D("EYMD.M,<pYMD><v*DATE.SYS/0>");
D("EHMS.M,<pHMS><v*TIME.SYS/0>");
}
T("CD.M"){
D("");
D("");
D("Data:");
D("Laikas:");
}
MMI("1060,1061,9,a1=XABC.F");
MMI("1061,0,2,m=VIEW.M,d1=3");
T("DD.M"){
D(",<*40aSUPERVIZORIAUS INFORMACIJA>");
D(",");
D(",<t*XABC.STS>");
}
MMI("1210,0,5,m=VIDM1.M,d1=5");
T("DD.M"){
D(",<-5t*XSG.I>");
D(",<pFC><-4v*FC.STS>");
D(",<pR2><8v*FCTS.TMR>");
D(",<pMHFS><v*HFS.STS>");
D(",(<pP1><2v*STGC.STS/0>,<pP1><2vSTGN.STS/0>)");
}
T("CD.M"){
D("SG");
D("BUKLE");
D("   LAIKAS");
D("VELEVELES");
D("CUR|NEXT");
}
MMI("1220,0,11,m=VIEW.M,d1=5");
T("DD.M"){
D(",<PR2><5v*FCXT.TMR/0>");
D(",<PR2><5v*FCXT.TMR/1>");
D(",<PR2><5v*FCXT.TMR/2>");
D(",<PR2><5v*FCXT.TMR/3>");
D(",<PR2><5v*FCXT.TMR/4>");
}
T("CD.M"){
D("SKAITOMA SEKUNDE (U)=");
D("PROGRAMOS CIKLAS(T)=");
D("CIKLA LAIKAS(CY)=");
D("Offset         (OF) =");
D("skirtumas U|T (DIF)=");
}
MMI("1230,0,6,m=VIEW.M,d1=7");
T("DD.M"){
D(",<tXP.SYS/0>");
D(",");
D(",IDENTIFIKAVIMAS     : <tVEEM.SYS/0>");
D(",BUKLE               : <pMODE><vMODE.STS/0>");
D(",DATA/LAIKAS         : <pYMD><vDATE.SYS/0>  <pHMS><vTIME.SYS/0>");
D(",CPU APKROVIMAS      : R=<2vAPPL.STS/0>  L=<3vLOAD.SYS/0>%");
D(",MAITINIMAS          : <3v*MAINS.SYS> Volt");
}
MMI("1240,0,5,m=VIFL6.M,d1=5");
T("DD.M"){
D(",<3t*I1.I/0-63>");
D(",<-5t*XLMSC.STS>");
D(",<-7t*XDETSC.STS>");
D(",<-7t*XDETESC.STS>");
D(",<-3t*XOMSSC.STS>");
}
T("CD.M"){
D("");
D("LEMPA");
D("DET");
D("DHIS");
D("OMS");
}
MMI("1250,0,2,m=VIFL5.M,d1=3");
T("DD.M"){
D(",<*40aPROGRAMOS ZURNALAS>");
D(",");
D(",<03tI1.I> <t*TBUCH.STS>");
}
MMI("1260,0,2,m=VIFL5.M,d1=3");
T("DD.M"){
D(",<*40aSG ZURNALAS>");
D(",");
D(",<03tI1.I> <t*TBSG.STS>");
}
MMI("1280,0,5,m=VIDM6.M,d1=3");
T("DD.M"){
D(",<-7i> <pXLM><-7v*XLME.STS> <p><vXLMA.STS> <vXLMV.STS> <3vXLMP.STS> <vXLMS.STS>");
D("E10.M,<3v*XLMU.R1>");
D("E10.M,<3v*XLMD.R1>");
}
T("CD.M"){
D("LEMPA    STATUSAS  AV  PS");
D("REF1");
D("REF2");
}
MMI("1310,0,2,m=VIFL5.M,d1=3");
T("DD.M"){
D(",<*40aPARAMETRU PAKEITIMAS>");
D(",");
D(",<03ti1.i> <t*XPAR.STS>");
}
MMI("1340,0,9,a1=KLC.F");
MMI("1350,0,9,a1=XPUTS.F");
MMI("1360,1361,10,:DETEKTORIU KLAIDU ATIESTATIMAS ?");
MMI("1361,0,9,a1=XDETR.F");
MMI("1370,1371,10,:KLAIDU ATIESTATIMAS ?");
MMI("1371,0,9,a1=MACRST.F");
MMI("1390,0,2,m=VIFL5.M,d1=3");
T("DD.M"){
D(",<*40aEC-2 ALERT+ LOGBOOK>");
D(",");
D(",<03tI1.I> <t*TLCLOGLB>");
}
MMI("1400,0,5,m=VIDM1.M,d1=4");
T("DD.M"){
D(",AREA(<-5tXAREA.I/0>,<02tI1.I>)");
D("EDA3.M,<pMDAY3><v*XAREA.R30>");
D("EHM.M,<pHM><v*XAREA.R11>");
D("E10.M,<3v*XAREA.R1>");
}
T("CD.M"){
D("KOMBINACIJA");
D("DIENA");
D("LAIKAS");
D("TALPA");
}
MMI("1410,0,5,m=VIDM1.M,d1=6,i1=1");
T("DD.M"){
D(",<-40aREGIONAS   ATIDARITAS    UZDARITAS>");
D(",<-5tXAREA.I>");
D("E1A.M,<pDR2><3v*XAREAO.R2>");
D("E10.M,<3v*XAREAO.R1>");
D("E1A.M,<pDR2><3v*XAREAC.R2>");
D("E10.M,<3v*XAREAC.R1>");
}
T("CD.M"){
D("");
D("");
D("  %");
D("ABS");
D("  %");
D("ABS");
}
MMI("1420,0,5,m=VIDM1.M,d1=3");
T("DD.M"){
D(",<-5tXAREA.I>");
D("EVA.M,<pXAREA><-5v*XAREAM.STS>");
D(",<pXAREA><5v*XAREA.STS>");
}
T("CD.M"){
D("ERDVE");
D("RANKINIS");
D("STATUSAS ");
}
MMI("1430,0,11,m=VROW.M,d1=4,i1=2");
T("DD.M"){
D(",<*40aLAIKO UZSTATYMAS>");
D(",");
D("EHM.M,<pHM><5v*XAREAAC.R11/0>");
D("EHM.M,<pHM><5v*XAREADL.R11/0>");
}
T("CD.M"){
D("");
D("");
D("Laiko automatinis koregavimas:");
D("Dienos laiko registracija:");
}
MMI("1440,0,5,m=VIDM.M,d1=2");
T("DD.M"){
D(",<-5t*XAREA.I>   <-4t*XSIGN.I>");
D("E10.M,<3v*XSIGNP.R1>");
}
T("CD.M"){
D("ZONA  PRISIJUNGTI");
D("ANKSTYNAS STARTAS");
}
MMI("1450,0,5,m=VIDM1.M,d1=3");
T("DD.M"){
D(",<-4t*I1.I>");
D("EYMD.M,<pYMD><8v*XPDTDT.R12>");
D("EVA.M,<pMDAY3T><3v*XPDTDT.R1>");
}
T("CD.M"){
D("NR");
D("Data");
D("TIPAS:");
}
MMI("1460,0,5,m=VIDM1.M,d1=6,i1=1");
T("DD.M"){
D(",<-40aREGIONAS       MIN.      МАX.>");
D(",<-5tXAREA.I>");
D("E1A.M,<pDR2><3v*XAREAMI.R2>");
D("E10.M,<3v*XAREAMI.R1>");
D("E1A.M,<pDR2><3v*XAREAMA.R2>");
D("E10.M,<3v*XAREAMA.R1>");
}
T("CD.M"){
D("");
D("");
D("  %");
D("ABS");
D("  %");
D("ABS");
}
MMI("1470,0,5,m=VIDM1.M,d1=3,i1=1");
T("DD.M"){
D(",<11aAREA:   ><-5tXAREA.I/0>  <14aACTUAL CAP. : ><3v*XAREACAP.R1>");
D(",<-3t*DAY.I>");
D("E10.M,<3v*XAREAAC0.R1>");
}
T("CD.M"){
D("");
D("DIENA");
D("CORR.");
}
MMI("1590,1591,12,i1=1593,i2=0xF644");
MMI("1591,1592,10,:DARBO REZIMAS BE LAMPU                  [<pWORK><-3vSF.SYS/WORK>]");
MMI("1592,0,9,a1=WORK.F");
MMI("1593,0,2,d1=3,t=20");
T("DD.M"){
D(",");
D(",");
D(",<*40aNETEISINGAS PIN KODAS>");
}
MMI("1610,0,5,m=VEDM1.M,d1=5,a1=XLDMRC.F");
T("DD.M"){
D(",<tXLDBUI.I>  <-7tXLD.I>");
D(",<3v*XLDF.STS>  <4vXLDI.STS>  <3vXLDS.STS>");
D("E10.M,<4v*XLDS.R1>");
D("E10.M,<4v*XLDH.R1>");
D("E1.M,<4v*XLDP.R1");
}
T("CD.M"){
D("U-G-L  DET");
D("kHz    uH  Sig");
D("dL/L");
D("ATIDETI");
D("  PL");
}
MMI("1620,0,5,m=VEDM2.M,d1=2,a1=XLDMRU.F");
T("DD.M"){
D(",<tXLDBU.I>");
D("EOO.M,<pXON><3v*XLDI.R1>");
}
T("CD.M"){
D("U-G");
D("Interscan");
}
MMI("2140,0,5,m=VIDM1.M,d1=4");
T("DD.M"){
D(",<-2t*I1.I>");
D("EDA.M,<pMDAY><v*PLTDAY.R30>");
D("EHM.M,<pHM><v*PLTTIM.R11>");
D("E10.M,<pP2><3v*PLTPL.R1>");
}
T("CD.M"){
D("");
D("DIENOS:");
D("LAIKAS");
D("PLANAS");
}
MMI("2200,0,5,m=VIDM6A.M,d1=7");
T("DD.M"){
D(",<-7t*XDET.I>");
D("E01.M,<pR2><4v*DTO.R2>");
D("E01.M,<pR2><4v*DTG1.R2>");
D("E01.M,<pR2><4v*DTG2.R2>");
D("EHM.M,<pHM><v*XDETO.R11>");
D("EHM.M,<pHM><v*XDETN.R11>");
D("EOO.M,<pXON><v*XDETINV.R21>");
}
T("CD.M"){
D("DET");
D("REIK.");
D("GAP1");
D("GAP2");
D("TBG");
D("TOG");
D("INV");
}
MMI("2230,0,5,m=VIDM1.M,d1=3");
T("DD.M"){
D(",<-5t*XSG.I> <pR2><4v*TGG.R2> <pR2><4v*TGA.R2> <pR2><4v*TGR.R2>");
D("E01.M,<pR2><4v*TA.R2>");
D("E01.M,<pR2><4v*TRA.R2>");
}
T("CD.M"){
D("SG     TGG  TGA  TGR");
D("  TA");
D(" TRA");
}
MMI("2310,2311,12,i1=2313,i2=0xF644");
MMI("2311,2312,10,:KEISTI GALINGUMA ? [<pXAUTOSET><4vSF.SYS/PSET>]");
MMI("2312,0,9,a1=XLMA.F");
MMI("2313,0,2,d1=3,t=20");
T("DD.M"){
D(",");
D(",");
D(",<*40aNETEISINGAS PIN KODAS>");
}
MMI("2340,0,5,m=VIDM1.M,d1=5");
T("DD.M"){
D(",<-2t*I1.I>");
D("EYMD.M,<pYMD><v*PLYDATE.R12>");
D("EHM.M,<pHM><v*PLYBTIM.R11>");
D("EHM.M,<pHM><v*PLYETIM.R11>");
D("E10.M,<pP2><3v*PLYPL.R1>");
}
T("CD.M"){
D("");
D("MM-MM-DD");
D("PRADZA");
D("PABAIGA");
D("PLANAS");
}
MMI("2350,0,5,m=VIDM1.M,d1=10");
T("DD.M"){
D(",<-10t*VPARM.I>");
D("E10.M,<pR1><5v*VPARM.R1>");
D("E10.M,<pR1><5v*VPARM1.R1>");
D("E10.M,<pR1><5v*VPARM2.R1>");
D("E10.M,<pR1><5v*VPARM3.R1>");
D("E10.M,<pR1><5v*VPARM4.R1>");
D("E10.M,<pR1><5v*VPARM5.R1>");
D("E10.M,<pR1><5v*VPARM6.R1>");
D("E10.M,<pR1><5v*VPARM7.R1>");
D("E10.M,<pR1><5v*VPARM8.R1>");
}
T("CD.M"){
D("ID");
D("  DEF");
D("VP-1");
D("VP-2");
D("VP-3");
D("VP-4");
D("VP-5");
D("VP-6");
D("VP-7");
D("VP-8");
}
MMI("2360,0,5,m=VIDM1.M,d1=10");
T("DD.M"){
D(",<-10t*VPARM.I>");
D("E10.M,<pR1><5v*VPARM.R1>");
D("E10.M,<pR1><5v*VPARM9.R1>");
D("E10.M,<pR1><5v*VPARM10.R1>");
D("E10.M,<pR1><5v*VPARM11.R1>");
D("E10.M,<pR1><5v*VPARM12.R1>");
D("E10.M,<pR1><5v*VPARM13.R1>");
D("E10.M,<pR1><5v*VPARM14.R1>");
D("E10.M,<pR1><5v*VPARM15.R1>");
D("E10.M,<pR1><5v*VPARM16.R1>");
}
T("CD.M"){
D("ID");
D("  DEF");
D("VP-9");
D("VP-10");
D("VP-11");
D("VP-12");
D("VP-13");
D("VP-14");
D("VP-15");
D("VP-16");
}
MMI("2370,0,5,m=VIDM.M,d1=2");
T("DD.M"){
D(",<-20t*PARM.I>");
D("E10.M,<4v*PARM.R1>");
}
T("CD.M"){
D("PARAMETRAS");
D("REIKSME");
}
MMI("2410,0,4,m=VSGSG.M,d1=4,s=1");
T("DD.M"){
D(",<*40aINTERGREEN LAIKAS>");
D("E01.M,<pR2><4v*TING.R2>");
D(",<-5t*XSG.I>");
D(",<*5t*XSG.I>");
}
MMI("2420,0,4,m=VSGSG.M,d1=4,s=1");
T("DD.M"){
D(",<*40aINTERRED LAIKAS>");
D("E01.M,<pR2><4v*TINR.R2>");
D(",<-5t*XSG.I>");
D(",<*5t*XSG.I>");
}
MMI("2430,0,4,m=VSGSG.M,d1=4,s=1");
T("DD.M"){
D(",<*40aLATE START LAIKAS>");
D("E01.M,<pR2><4v*TLST.R2>");
D(",<-5t*XSG.I>");
D(",<*5t*XSG.I>");
}
MMI("2440,0,4,m=VSGSG.M,d1=4,s=1");
T("DD.M"){
D(",<*40aLATE RELEASE LAIKAS>");
D("E01.M,<pR2><4v*TLAT.R2>");
D(",<-5t*XSG.I>");
D(",<*5t*XSG.I>");
}
MMI("2450,0,4,m=VSGSG.M,d1=4,s=1");
T("DD.M"){
D(",<*40aLAIKAS EARLY CUT-OFF>");
D("E01.M,<pR2><4v*TNEC.R2>");
D(",<-5t*XSG.I>");
D(",<*5t*XSG.I>");
}
MMI("2460,0,5,m=VIDM6A.M,d1=6");
T("DD.M"){
D(",<4v*FCXPL.R1> <pXSGI><5v*FCXSG.R1>");
D("E10.M,<3v*FCXTSG1.R1>");
D("E10.M,<3v*FCXTSG2.R1>");
D("E10.M,<3v*FCXTEG1.R1>");
D("E10.M,<3v*FCXTEG2.R1>");
D("EXFL.M,<pFCXFL><-2v*FCXFL.R30>");
}
T("CD.M"){
D("PLANAS    SG");
D("TSG1");
D("TSG2");
D("TEG1");
D("TEG2");
D("VELIAVAS");
}
MMI("2470,0,11,m=VIEW.M,d1=2,i1=1");
T("DD.M"){
D(",<*40aRANKINIS PLANO PASIRINKIMAS>");
D("EVA.M,<pPLANI><-14v*PL.CMD>");
}
MMI("2480,0,5,m=VIDM1.M,d1=3");
T("DD.M"){
D(",<-2t*I1.I>: <pXSGI><-5vFCCER1.R1>,<-5vFCCER2.R1>,<pXDETI><-7vFCCERD.R1>");
D("E01.M,<pR2><4v*FCCERG.R2>");
D("E01.M,<pR2><4v*FCCERM.R2>");
}
T("CD.M"){
D("   ANKS  KITAS  DET");
D("GAP");
D("МAX.");
}
MMI("2610,0,5,m=VIDM.M,d1=2");
T("DD.M"){
D(",<-2t*I1.I> :");
D("E10.M,<3v*FCXCY.R1>");
}
T("CD.M"){
D("CIKLAS");
D("LAIKAS");
}
MMI("2620,0,4,m=VMAT.M,d1=4");
T("DD.M"){
D(",OFFSET/CIKLAS");
D("E10.M,<3v*FCXOF.R1>");
D(",<3t*I1.I/0-4>");
D(",<3t*I1.I/0-5>");
}
MMI("2640,0,5,m=VIDM1.M,d1=10");
T("DD.M"){
D(",<-10t*VPARM.I>");
D("E10.M,<pR1><5v*VPARM.R1>");
D("E10.M,<pR1><5v*VPARM17.R1>");
D("E10.M,<pR1><5v*VPARM18.R1>");
D("E10.M,<pR1><5v*VPARM19.R1>");
D("E10.M,<pR1><5v*VPARM20.R1>");
D("E10.M,<pR1><5v*VPARM21.R1>");
D("E10.M,<pR1><5v*VPARM22.R1>");
D("E10.M,<pR1><5v*VPARM23.R1>");
D("E10.M,<pR1><5v*VPARM24.R1>");
}
T("CD.M"){
D("ID");
D("  DEF");
D("VP-9");
D("VP-10");
D("VP-11");
D("VP-12");
D("VP-13");
D("VP-14");
D("VP-15");
D("VP-16");
}
MMI("2650,0,5,m=VIDM1.M,d1=10");
T("DD.M"){
D(",<-10t*VPARM.I>");
D("E10.M,<pR1><5v*VPARM.R1>");
D("E10.M,<pR1><5v*VPARM25.R1>");
D("E10.M,<pR1><5v*VPARM26.R1>");
D("E10.M,<pR1><5v*VPARM27.R1>");
D("E10.M,<pR1><5v*VPARM28.R1>");
D("E10.M,<pR1><5v*VPARM29.R1>");
D("E10.M,<pR1><5v*VPARM30.R1>");
D("E10.M,<pR1><5v*VPARM31.R1>");
D("E10.M,<pR1><5v*VPARM32.R1>");
}
T("CD.M"){
D("ID");
D("  DEF");
D("VP-9");
D("VP-10");
D("VP-11");
D("VP-12");
D("VP-13");
D("VP-14");
D("VP-15");
D("VP-16");
}
MMI("2660,0,5,m=VIDM1.M,d1=10");
T("DD.M"){
D(",<-10t*VPARM.I>");
D("E10.M,<pR1><5v*VPARM.R1>");
D("E10.M,<pR1><5v*VPARM33.R1>");
D("E10.M,<pR1><5v*VPARM34.R1>");
D("E10.M,<pR1><5v*VPARM35.R1>");
D("E10.M,<pR1><5v*VPARM36.R1>");
D("E10.M,<pR1><5v*VPARM37.R1>");
D("E10.M,<pR1><5v*VPARM38.R1>");
D("E10.M,<pR1><5v*VPARM39.R1>");
D("E10.M,<pR1><5v*VPARM40.R1>");
}
T("CD.M"){
D("ID");
D("  DEF");
D("VP-9");
D("VP-10");
D("VP-11");
D("VP-12");
D("VP-13");
D("VP-14");
D("VP-15");
D("VP-16");
}
MMI("2670,0,5,m=VIDM1.M,d1=10");
T("DD.M"){
D(",<-10t*VPARM.I>");
D("E10.M,<pR1><5v*VPARM.R1>");
D("E10.M,<pR1><5v*VPARM41.R1>");
D("E10.M,<pR1><5v*VPARM42.R1>");
D("E10.M,<pR1><5v*VPARM43.R1>");
D("E10.M,<pR1><5v*VPARM44.R1>");
D("E10.M,<pR1><5v*VPARM45.R1>");
D("E10.M,<pR1><5v*VPARM46.R1>");
D("E10.M,<pR1><5v*VPARM47.R1>");
D("E10.M,<pR1><5v*VPARM48.R1>");
}
T("CD.M"){
D("ID");
D("  DEF");
D("VP-9");
D("VP-10");
D("VP-11");
D("VP-12");
D("VP-13");
D("VP-14");
D("VP-15");
D("VP-16");
}
MMI("2730,0,5,m=VIDM4.M,d1=6,i1=2");
T("DD.M"){
D(",LPAIR   VEH  SOREF  L.SPC  L.DIM");
D(",U-G-P  km/h   km/h     cm     cm");
D(",<tXLDBUP.I>   <3vXLDSFL.STS>");
D("E10.M,<5v*XLDST.R1>");
D("E100.M,<5v*XLDSS.R1>");
D("E100.M,<5v*XLDSD.R1>");
}
MMI("3110,0,3,m=VMAT.M,d1=3,i1=4");
T("DD.M"){
D(",<*40aCCS DETEKTORIU PASKIRIMAS>");
D(",");
D("EVA.M,<tI1.I> <pXDETI><-7v*DETE.CCS>");
}
MMI("3120,0,11,m=VROW.M,d1=6,i1=2");
T("DD.M"){
D(",<*40aCCS COUNT PROGRAMA>");
D(",");
D("EYMD.M,<pYMD><v*DATE.CCS>");
D("EHM.M,<pHM><v*TIME.CCS>");
D("EHM.M,<pHM><v*REPE.CCS>");
D("EHM.M,<pHM><v*CYCL.CCS>");
}
T("CD.M"){
D("");
D("");
D("Start date     :");
D("Start time     :");
D("Repetition time:");
D("Cycle time     :");
}
MMI("3130,0,4,m=VMAT.M,d1=4");
T("DD.M"){
D(",CCS KEISTI DUOMENIUS 12 PER. (<v*PERI.CCS>)");
D(",<5v*DATA.CCS>");
D(",<pXDETI><-7v*DETE.CCS>");
D(",<5t*I1.I/0-11>");
}
MMI("3200,3201,8,i1=3202,:PINCODE ?");
MMI("3201,0,2,d1=3,t=10");
T("DD.M"){
D(",");
D(",");
D(",<*40aPIN KODAS OK>");
}
MMI("3202,0,2,d1=3,t=10");
T("DD.M"){
D(",");
D(",");
D(",<*40aNETEISINGAS PIN KODAS>");
}
MMI("3210,0,2,m=VIFL5.M,d1=3");
T("DD.M"){
D(",VALDIKLIO IDENT.: <t*VEEM.SYS>");
D(",");
D(",<-6i>: <pVER><v*VER.SYS>");
}
MMI("3220,3221,6,m=VIEW.M,d1=6");
T("DD.M"){
D(",<tXP.SYS/0>");
D(",");
D(",CCS telefonas   : <tTELEPHONE.SYS/0>");
D(",CCS telefonas(2): <tTELEPHONE.SYS/1>");
D(",CCS adresas IP  : <tIPADDRESS.SYS/0>/<vCONFIG.SYS/0>");
D(",TLC adresas IP  : <tIPADDRESS.SYS/1>");
}
MMI("3221,3220,6,m=VIEW.M,d1=6");
T("DD.M"){
D(",        Konfiguracja Ethernetowa");
D(",");
D(",IP adresas      : <tETHERNET.SYS/1>");
D(",Subnet mask     : <tETHERNET.SYS/2>");
D(",Default gateway : <tETHERNET.SYS/3>");
D(",MAC adresas     : <tETHERNET.SYS/0>");
}
MMI("4000,0,2,m=VIFL6.M,d1=2");
T("DD.M"){
D(",GRANDINE    LAIKOTARPIS    REIKSME");
D(",  <2i>         <3v*TPGPERI.CNT/1->          <vTPGACNT.CNT>");
}
MMI("4010,0,4,m=VMAT.M,d1=4,s=1");
T("DD.M"){
D(",GRANDINE   SUSKAIC. DUOM.    LEIKOTARP.->");
D(",<5v*TPGDATA1.CNT>");
D(",<2t*TPGCIRC1.I>");
D(",<5t*TPGPER.I>");
}
MMI("4020,0,11,m=VROW.M,d1=10,i1=2");
T("DD.M"){
D(",<*40a BENDRI NUSTATYMAI>");
D(",");
D("EYMD.M,<pYMD><v*TPGDATE.R12>");
D("EHM.M,<pHM><v*TPGTIME.R11>");
D("EHM.M,<pHM><v*TPGREPE.R11>");
D("EHM.M,<pHM><v*TPGCYCL.R11>");
D("EMA.M,<pTPGM><-13v*TPGMODE.R1>");
D("EFA.M,<pTPGF><-20v*TPGFUNC.R1>");
D("E01.M,<pR2><4v*TPGRB.R1>");
D("E01.M,<pR2><4v*TPGRE.R1>");
}
T("CD.M"){
D("");
D("");
D("Pradzios data   :");
D("Pradzios laikas :");
D("Kartojima laikas:");
D("Cikla laikas    :");
D("Rezimas         :");
D("Funkcija:");
D("Raudono start   :");
D("Raudono  stop   :");
}
MMI("4030,0,5,m=VIDM1.M,d1=11");
T("DD.M"){
D(",<2t*TPGCIRC.I>");
D("EYMD.M,<pYMD><v*TPGDATE.R12/1->");
D("EHM.M,<pHM><v*TPGTIME.R11/1->");
D("EHM.M,<pHM><v*TPGREPE.R11/1->");
D("EHM.M,<pHM><v*TPGCYCL.R11/1->");
D("EDE.M,<pXDETI><-8v*TPGDET.R1/1->");
D("ESG.M,<pXSGI><-7v*TPGSG.R1/1->");
D("EMA.M,<pTPGM><-13v*TPGMODE.R1/1->");
D("EFA.M,<pTPGF><-20v*TPGFUNC.R1/1->");
D("E01.M,<pR2><6v*TPGRB.R1/1->");
D("E01.M,<pR2><6v*TPGRE.R1/1->");
}
T("CD.M"){
D("");
D("DATA");
D("LAIKAS");
D("Kartoti");
D("CIKLAS");
D("DET");
D("SG");
D("Rezimas        ");
D("Funkcija        ");
D("Raudono start  ");
D("Raudono  stop ");
}
MMI("4140,0,5,m=VIDM7.M,d1=51,i1=1");
T("DD.M"){
D(",<*40aMinimum green times>");
D(",<-5t*XSG.I>");
D("E01.M,<pR2><6v*TG.R2>");
D("E01.M,<pR2><6v*TFG1.R2>");
D("E01.M,<pR2><6v*TFG2.R2>");
D("E01.M,<pR2><6v*TFG3.R2>");
D("E01.M,<pR2><6v*TFG4.R2>");
D("E01.M,<pR2><6v*TFG5.R2>");
D("E01.M,<pR2><6v*TFG6.R2>");
D("E01.M,<pR2><6v*TFG7.R2>");
D("E01.M,<pR2><6v*TFG8.R2>");
D("E01.M,<pR2><6v*TFG9.R2>");
D("E01.M,<pR2><6v*TFG10.R2>");
D("E01.M,<pR2><6v*TFG11.R2>");
D("E01.M,<pR2><6v*TFG12.R2>");
D("E01.M,<pR2><6v*TFG13.R2>");
D("E01.M,<pR2><6v*TFG14.R2>");
D("E01.M,<pR2><6v*TFG15.R2>");
D("E01.M,<pR2><6v*TFG16.R2>");
D("E01.M,<pR2><6v*TFG17.R2>");
D("E01.M,<pR2><6v*TFG18.R2>");
D("E01.M,<pR2><6v*TFG19.R2>");
D("E01.M,<pR2><6v*TFG20.R2>");
D("E01.M,<pR2><6v*TFG21.R2>");
D("E01.M,<pR2><6v*TFG22.R2>");
D("E01.M,<pR2><6v*TFG23.R2>");
D("E01.M,<pR2><6v*TFG24.R2>");
D("E01.M,<pR2><6v*TFG25.R2>");
D("E01.M,<pR2><6v*TFG26.R2>");
D("E01.M,<pR2><6v*TFG27.R2>");
D("E01.M,<pR2><6v*TFG28.R2>");
D("E01.M,<pR2><6v*TFG29.R2>");
D("E01.M,<pR2><6v*TFG30.R2>");
D("E01.M,<pR2><6v*TFG31.R2>");
D("E01.M,<pR2><6v*TFG32.R2>");
D("E01.M,<pR2><6v*TFG33.R2>");
D("E01.M,<pR2><6v*TFG34.R2>");
D("E01.M,<pR2><6v*TFG35.R2>");
D("E01.M,<pR2><6v*TFG36.R2>");
D("E01.M,<pR2><6v*TFG37.R2>");
D("E01.M,<pR2><6v*TFG38.R2>");
D("E01.M,<pR2><6v*TFG39.R2>");
D("E01.M,<pR2><6v*TFG40.R2>");
D("E01.M,<pR2><6v*TFG41.R2>");
D("E01.M,<pR2><6v*TFG42.R2>");
D("E01.M,<pR2><6v*TFG43.R2>");
D("E01.M,<pR2><6v*TFG44.R2>");
D("E01.M,<pR2><6v*TFG45.R2>");
D("E01.M,<pR2><6v*TFG46.R2>");
D("E01.M,<pR2><6v*TFG47.R2>");
D("E01.M,<pR2><6v*TFG48.R2>");
}
T("CD.M"){
D("");
D("PL,SG");
D("   TG");
D("   TG");
D(" TEG1");
D(" TEG2");
D("   TG");
D(" TEG1");
D(" TEG2");
D("   TG");
D(" TEG1");
D(" TEG2");
D("   TG");
D("   TG");
D(" TEG1");
D(" TEG2");
D("   TG");
D(" TEG1");
D(" TEG2");
D("   TG");
D(" TEG1");
D(" TEG2");
D("   TG");
D(" TEG1");
D(" TEG2");
D("   TG");
D(" TEG1");
D(" TEG2");
D("   TG");
D(" TEG1");
D(" TEG2");
D("   TG");
D("   TG");
D(" TEG1");
D(" TEG2");
D("   TG");
D(" TEG1");
D(" TEG2");
D("   TG");
D(" TEG1");
D(" TEG2");
D("   TG");
D("   TG");
D("   TG");
D(" TEG1");
D(" TEG2");
D("   TG");
D(" TEG1");
D(" TEG2");
D("   TG");
D(" TEG1");
}
MMI("4150,0,5,m=VIDM7.M,d1=50,i1=1");
T("DD.M"){
D(",<*40aMaximum green times>");
D(",<-5t*XSG.I>");
D("E10.M,<pR1><6v*TM1X1.R1>");
D("E10.M,<pR1><6v*TM1X2.R1>");
D("E10.M,<pR1><6v*TM1X3.R1>");
D("E10.M,<pR1><6v*TM1X4.R1>");
D("E10.M,<pR1><6v*TM1X5.R1>");
D("E10.M,<pR1><6v*TM1X6.R1>");
D("E10.M,<pR1><6v*TM1X7.R1>");
D("E10.M,<pR1><6v*TM1X8.R1>");
D("E10.M,<pR1><6v*TM1X9.R1>");
D("E10.M,<pR1><6v*TM1X10.R1>");
D("E10.M,<pR1><6v*TM1X11.R1>");
D("E10.M,<pR1><6v*TM1X12.R1>");
D("E10.M,<pR1><6v*TM1X13.R1>");
D("E10.M,<pR1><6v*TM1X14.R1>");
D("E10.M,<pR1><6v*TM1X15.R1>");
D("E10.M,<pR1><6v*TM1X16.R1>");
D("E10.M,<pR1><6v*TM1X17.R1>");
D("E10.M,<pR1><6v*TM1X18.R1>");
D("E10.M,<pR1><6v*TM1X19.R1>");
D("E10.M,<pR1><6v*TM1X20.R1>");
D("E10.M,<pR1><6v*TM1X21.R1>");
D("E10.M,<pR1><6v*TM1X22.R1>");
D("E10.M,<pR1><6v*TM1X23.R1>");
D("E10.M,<pR1><6v*TM1X24.R1>");
D("E10.M,<pR1><6v*TM1X25.R1>");
D("E10.M,<pR1><6v*TM1X26.R1>");
D("E10.M,<pR1><6v*TM1X27.R1>");
D("E10.M,<pR1><6v*TM1X28.R1>");
D("E10.M,<pR1><6v*TM1X29.R1>");
D("E10.M,<pR1><6v*TM1X30.R1>");
D("E10.M,<pR1><6v*TM1X31.R1>");
D("E10.M,<pR1><6v*TM1X32.R1>");
D("E10.M,<pR1><6v*TM1X33.R1>");
D("E10.M,<pR1><6v*TM1X34.R1>");
D("E10.M,<pR1><6v*TM1X35.R1>");
D("E10.M,<pR1><6v*TM1X36.R1>");
D("E10.M,<pR1><6v*TM1X37.R1>");
D("E10.M,<pR1><6v*TM1X38.R1>");
D("E10.M,<pR1><6v*TM1X39.R1>");
D("E10.M,<pR1><6v*TM1X40.R1>");
D("E10.M,<pR1><6v*TM1X41.R1>");
D("E10.M,<pR1><6v*TM1X42.R1>");
D("E10.M,<pR1><6v*TM1X43.R1>");
D("E10.M,<pR1><6v*TM1X44.R1>");
D("E10.M,<pR1><6v*TM1X45.R1>");
D("E10.M,<pR1><6v*TM1X46.R1>");
D("E10.M,<pR1><6v*TM1X47.R1>");
D("E10.M,<pR1><6v*TM1X48.R1>");
}
T("CD.M"){
D("");
D("PL,SG");
D("   TG");
D(" TEG1");
D(" TEG2");
D("   TG");
D(" TEG1");
D(" TEG2");
D("   TG");
D(" TEG1");
D(" TEG2");
D("   TG");
D("   TG");
D(" TEG1");
D(" TEG2");
D("   TG");
D(" TEG1");
D(" TEG2");
D("   TG");
D(" TEG1");
D(" TEG2");
D("   TG");
D(" TEG1");
D(" TEG2");
D("   TG");
D(" TEG1");
D(" TEG2");
D("   TG");
D(" TEG1");
D(" TEG2");
D("   TG");
D("   TG");
D(" TEG1");
D(" TEG2");
D("   TG");
D(" TEG1");
D(" TEG2");
D("   TG");
D(" TEG1");
D(" TEG2");
D("   TG");
D("   TG");
D("   TG");
D(" TEG1");
D(" TEG2");
D("   TG");
D(" TEG1");
D(" TEG2");
D("   TG");
D(" TEG1");
}
MMI("4160,0,5,m=VIDM7.M,d1=50,i1=1");
T("DD.M"){
D(",<*40aAlternative maximum green times>");
D(",<-5t*XSG.I>");
D("E10.M,<pR1><6v*TM2X1.R1>");
D("E10.M,<pR1><6v*TM2X2.R1>");
D("E10.M,<pR1><6v*TM2X3.R1>");
D("E10.M,<pR1><6v*TM2X4.R1>");
D("E10.M,<pR1><6v*TM2X5.R1>");
D("E10.M,<pR1><6v*TM2X6.R1>");
D("E10.M,<pR1><6v*TM2X7.R1>");
D("E10.M,<pR1><6v*TM2X8.R1>");
D("E10.M,<pR1><6v*TM2X9.R1>");
D("E10.M,<pR1><6v*TM2X10.R1>");
D("E10.M,<pR1><6v*TM2X11.R1>");
D("E10.M,<pR1><6v*TM2X12.R1>");
D("E10.M,<pR1><6v*TM2X13.R1>");
D("E10.M,<pR1><6v*TM2X14.R1>");
D("E10.M,<pR1><6v*TM2X15.R1>");
D("E10.M,<pR1><6v*TM2X16.R1>");
D("E10.M,<pR1><6v*TM2X17.R1>");
D("E10.M,<pR1><6v*TM2X18.R1>");
D("E10.M,<pR1><6v*TM2X19.R1>");
D("E10.M,<pR1><6v*TM2X20.R1>");
D("E10.M,<pR1><6v*TM2X21.R1>");
D("E10.M,<pR1><6v*TM2X22.R1>");
D("E10.M,<pR1><6v*TM2X23.R1>");
D("E10.M,<pR1><6v*TM2X24.R1>");
D("E10.M,<pR1><6v*TM2X25.R1>");
D("E10.M,<pR1><6v*TM2X26.R1>");
D("E10.M,<pR1><6v*TM2X27.R1>");
D("E10.M,<pR1><6v*TM2X28.R1>");
D("E10.M,<pR1><6v*TM2X29.R1>");
D("E10.M,<pR1><6v*TM2X30.R1>");
D("E10.M,<pR1><6v*TM2X31.R1>");
D("E10.M,<pR1><6v*TM2X32.R1>");
D("E10.M,<pR1><6v*TM2X33.R1>");
D("E10.M,<pR1><6v*TM2X34.R1>");
D("E10.M,<pR1><6v*TM2X35.R1>");
D("E10.M,<pR1><6v*TM2X36.R1>");
D("E10.M,<pR1><6v*TM2X37.R1>");
D("E10.M,<pR1><6v*TM2X38.R1>");
D("E10.M,<pR1><6v*TM2X39.R1>");
D("E10.M,<pR1><6v*TM2X40.R1>");
D("E10.M,<pR1><6v*TM2X41.R1>");
D("E10.M,<pR1><6v*TM2X42.R1>");
D("E10.M,<pR1><6v*TM2X43.R1>");
D("E10.M,<pR1><6v*TM2X44.R1>");
D("E10.M,<pR1><6v*TM2X45.R1>");
D("E10.M,<pR1><6v*TM2X46.R1>");
D("E10.M,<pR1><6v*TM2X47.R1>");
D("E10.M,<pR1><6v*TM2X48.R1>");
}
T("CD.M"){
D("");
D("PL,SG");
D("   TG");
D(" TEG1");
D(" TEG2");
D("   TG");
D(" TEG1");
D(" TEG2");
D("   TG");
D(" TEG1");
D(" TEG2");
D("   TG");
D("   TG");
D(" TEG1");
D(" TEG2");
D("   TG");
D(" TEG1");
D(" TEG2");
D("   TG");
D(" TEG1");
D(" TEG2");
D("   TG");
D(" TEG1");
D(" TEG2");
D("   TG");
D(" TEG1");
D(" TEG2");
D("   TG");
D(" TEG1");
D(" TEG2");
D("   TG");
D("   TG");
D(" TEG1");
D(" TEG2");
D("   TG");
D(" TEG1");
D(" TEG2");
D("   TG");
D(" TEG1");
D(" TEG2");
D("   TG");
D("   TG");
D("   TG");
D(" TEG1");
D(" TEG2");
D("   TG");
D(" TEG1");
D(" TEG2");
D("   TG");
D(" TEG1");
}
MMI("5210,0,6,m=VIEW.M,d1=6");
T("DD.M"){
D(",<*40aSUJUNGIMU BUKLE>");
D(",SUJUNG.    BUKLE    IE    ISJ     KLAIDAS");
}
MMI("7010,0,5,m=VIDM.M,d1=2");
T("DD.M"){
D(",<-17t*TSON.I>");
D("E10.M,<4v*TSON.R1>");
}
T("CD.M"){
D("");
D("LAIKAS");
}
MMI("7020,0,5,m=VIDM6A.M,d1=3");
T("DD.M"){
D(",<-6t*XSG.I>");
D("ESGO.M,<pHFSO><-15v*SGO.R30>");
D("EVA.M,<pSGRW><-12v*SGRW.R1>");
}
T("CD.M"){
D("SG");
D("OPCIJAS");
D("SGRW");
}
MMI("7030,0,5,m=VIDM6A.M,d1=3");
T("DD.M"){
D(",<-7t*XDET.I>");
D("ESG.M,<pXSGI><-7v*DSG.R1>");
D("EDF.M,<pMDF><-20v*DFUNC.R30>");
}
T("CD.M"){
D("DET");
D("GR");
D("FUNKCIJOS:");
}
MMI("7040,0,5,m=VIDM.M,d1=2");
T("DD.M"){
D(",<-2tI1.I>");
D(",<pMSG><-35v*STGSG.R30>");
}
T("CD.M"){
D("ST");
D("SG");
}
MMI("7050,0,11,m=VROW.M,d1=5,i1=1");
T("DD.M"){
D(",             *100 ms");
D("E10.M,<3v*XFLASH.R1/1>");
D("E10.M,<3v*XFLASH.R1/2>");
D("E10.M,<3v*XFLASH.R1/4>");
D("E10.M,<3v*XFLASH.R1/5>");
}
T("CD.M"){
D("");
D("MIRKSEJIMAS ISJ");
D("MIRKSEJIMAS IJ");
D("MIRKSEJIMAS ISJ");
D("MIRKSEJIMAS IJ");
}
MMI("9000,0,7,m=VMAT.M,d1=1,i1=5,i2=0");
T("DD.M"){
D(",<t*SGDET1>");
}
MMI("9010,0,5,m=VIDM2.M,d1=2");
T("DD.M"){
D(",<-7t*XDET.I> <pXDES><-3v*XDET.STS> <pXDER><v*XDET.STS>");
D("ENOO.M,<pXSW><-5v*XDET.R20>");
}
T("CD.M"){
D("DET  REIK.KLAIDA");
D("PAKEITIMAS ");
}
MMI("9020,0,3,m=VMAT.M,d1=1");
T("DD.M"){
D("EVA.M,<pXDES1><v*XDET.STS>");
}
MMI("9030,0,11,m=VIEW.M,d1=3,i1=2,v=1");
T("DD.M"){
D(",<*40aPARODIK MATAVUMO KAMPA>");
D(",");
D("EVA.M,<2v*XVA.SYS>");
}
T("CD.M"){
D("");
D("");
D("Matovumo kampas(0..7)=");
}
MMI("9050,0,2,m=VIDM2.M,d1=2");
T("DD.M"){
D(",SISTEMINES VELIAVOS");
D(",<-8t*XSF.I><vSF.SYS>");
}
MMI("9480,0,2,m=VIFL6.M,d1=2");
T("DD.M"){
D(",Stream   Mode   Stage");
D(", <-2t*I1.I>      <pSTEPM><-4v*STEPM.STS>    <p><-2vSTGC.STS>");
}
MMI("9500,0,5,m=VIDMUG405.M,d1=12,i1=1");
T("DD.M"){
D(",<+12aOTU-1 (><pOTUUS><vXOTUUS.STS/0> <p><tXUG405SCN.T/0><*1a)>");
D(",");
D(",<-7t*COTUCODE.T/0-15>");
D(",<-1a><pXON><-4v*XOTUIB.STS><-1a>");
D(",<*2a|>");
D(",<-7t*ROTUCODE.T>");
D(",<-1a><pXON><-4v*XOTUOB.STS><-1a>");
D(",<-7t*XUG405CBIT.T>");
D(",<-1a><pXON><-4v*XOTUIB.STS><-1a>");
D(",<*2a|>");
D(",<-7t*XUG405RBIT.T>");
D(",<-1a><pXON><-4v*XOTUOB.STS><-1a>");
}
T("CD.M"){
D("");
D("");
D("CTL-OTU");
D("Status");
D("| ");
D("RPL-OTU");
D("Status");
D("CTL-405");
D("Status");
D("| ");
D("RPL-405");
D("Status");
}
MMI("9510,0,5,m=VIDMUG405.M,d1=12,i1=1");
T("DD.M"){
D(",<+12aOTU-2 (><pOTUUS><vXOTUUS.STS/1> <p><tXUG405SCN.T/1><*1a)>");
D(",");
D(",<-7t*COTUCODE.T/16-31>");
D(",<-1a><pXON><-4v*XOTUIB.STS><-1a>");
D(",<*2a|>");
D(",<-7t*ROTUCODE.T>");
D(",<-1a><pXON><-4v*XOTUOB.STS><-1a>");
D(",<-7t*XUG405CBIT.T>");
D(",<-1a><pXON><-4v*XOTUIB.STS><-1a>");
D(",<*2a|>");
D(",<-7t*XUG405RBIT.T>");
D(",<-1a><pXON><-4v*XOTUOB.STS><-1a>");
}
T("CD.M"){
D("");
D("");
D("CTL-OTU");
D("Status");
D("| ");
D("RPL-OTU");
D("Status");
D("CTL-405");
D("Status");
D("| ");
D("RPL-405");
D("Status");
}
MMI("9520,0,5,m=VIDMUG405.M,d1=12,i1=1");
T("DD.M"){
D(",<+12aOTU-3 (><pOTUUS><vXOTUUS.STS/2> <p><tXUG405SCN.T/2><*1a)>");
D(",");
D(",<-7t*COTUCODE.T/32-47>");
D(",<-1a><pXON><-4v*XOTUIB.STS><-1a>");
D(",<*2a|>");
D(",<-7t*ROTUCODE.T>");
D(",<-1a><pXON><-4v*XOTUOB.STS><-1a>");
D(",<-7t*XUG405CBIT.T>");
D(",<-1a><pXON><-4v*XOTUIB.STS><-1a>");
D(",<*2a|>");
D(",<-7t*XUG405RBIT.T>");
D(",<-1a><pXON><-4v*XOTUOB.STS><-1a>");
}
T("CD.M"){
D("");
D("");
D("CTL-OTU");
D("Status");
D("| ");
D("RPL-OTU");
D("Status");
D("CTL-405");
D("Status");
D("| ");
D("RPL-405");
D("Status");
}
MMI("9530,0,5,m=VIDMUG405.M,d1=12,i1=1");
T("DD.M"){
D(",<+12aOTU-4 (><pOTUUS><vXOTUUS.STS/3> <p><tXUG405SCN.T/3><*1a)>");
D(",");
D(",<-7t*COTUCODE.T/48-63>");
D(",<-1a><pXON><-4v*XOTUIB.STS><-1a>");
D(",<*2a|>");
D(",<-7t*ROTUCODE.T>");
D(",<-1a><pXON><-4v*XOTUOB.STS><-1a>");
D(",<-7t*XUG405CBIT.T>");
D(",<-1a><pXON><-4v*XOTUIB.STS><-1a>");
D(",<*2a|>");
D(",<-7t*XUG405RBIT.T>");
D(",<-1a><pXON><-4v*XOTUOB.STS><-1a>");
}
T("CD.M"){
D("");
D("");
D("CTL-OTU");
D("Status");
D("| ");
D("RPL-OTU");
D("Status");
D("CTL-405");
D("Status");
D("| ");
D("RPL-405");
D("Status");
}
MMI("9540,0,5,m=VIDM.M,d1=2");
T("DD.M"){
D(",<*4tI1.I>   ");
D("EOTUINV.M,<pOTUINV><-18v*XOTUI.R1>");
}
T("CD.M"){
D("OTU ID");
D("Invert Control/reply bits");
}
MMI("9550,0,11,m=VIDM.M,d1=3,i1=2");
T("DD.M"){
D(",<*40aUG405 Status>");
D(",");
D("EUG405OPM.M,<pUG405OPM><11v*XUG405OPMODE.R1/0>");
}
T("CD.M"){
D("");
D("");
D("UG405 Operational Mode");
}
MMI("9560,0,2,m=VIFL6.M,d1=2");
T("DD.M"){
D(",<*40aUG405 Configuration>");
D(",<-16t*UG405CONFABBR.T> : <-tXUG405CONFIG.T>");
}
MMI("9900,0,5,m=VIDM1.M,d1=6");
T("DD.M"){
D(",<-2t*I1.I>");
D(",<-10t*XSTATE.I>");
D(",<pXOK><-3v*XSTATE.STS>");
D(",<-4v*XSTATR.STS>");
D(",<-4v*XSTATC.STS>");
D(",<-4v*XSTATV.STS>");
}
T("CD.M"){
D("ID");
D("KORTELE");
D("STS");
D("RSN");
D("CNT");
D("VER");
}
MMI("1,0,6,m=M001.M,d1=9");
T("DD.M"){
D(",<tXP.SYS/0>");
D(",");
D(",Bukle  : P<vPROG.STS/0> <pMODE><vMODE.STS/0> (<pKLC><-4vSF.SYS/CLKC>)");
D(",Planas : <03vSF.SYS/PLAN> <pPLANI><-14vPL.CMD>");
D(",Laikas : <pYMD><vDATE.SYS/0>  <pHMS><vTIME.SYS/0>");
D(",Klaidos: <pXSFE><v*XSFE.SYS>");
}
MMI("2,0,0,e=M002.M,:<*40aFUNKCIJU MYGTUKAI>");
MMI("3,0,0,e=M003.M,:<*40aZURNALAI>");
MMI("4,0,0,e=M004.M,:<*40aMENU>");
MMI("5,0,0,e=M005.M,:<*40aPARAMETRAI>");
MMI("6,0,0,e=M006.M,:<*40aSERVISAS>");
MMI("7,0,0,e=M007.M,:<*40aEISMO SKAICIAVIMAS>");
MMI("8,0,0,e=M008.M,:<*40aPROCESO KONTROLES BUKLE>");
MMI("9,0,0,e=M009.M,:<*40aPARKING GUIDANCE SYSTEM>");
MMI("10,0,0,e=M010.M,:<*40aJUDESIO SKAICIAVIMO PROGRAMA>");
MMI("11,0,0,e=M011.M,:<*40aJUDESIO SKAICIAVIMO PROGRAMA CCS>");
MMI("16,0,0,e=M016.M,:<*40aSUJUNGYMAI>");
MMI("21,0,0,e=M021.M,:<*40aKOORDINAVIMAS (C-O-S)>");
MMI("25,0,0,e=M025.M,:<*40aPROGRAMAVIMAS>");
MMI("26,0,0,e=M026.M,:<*40aEURODETECTOR>");
MMI("27,0,0,e=M027.M,:<*40a STATUSAS>");
MMI("28,0,0,e=M028.M,:<*40aSG LAIKAS>");
MMI("29,0,0,e=M029.M,:<*40aSISTEMOS PARAMETRU MENIU>");
MMI("49,0,0,e=M049.M,:<*40aSCOOT/OTU>");
MMI("57,0,0,e=M057.M,:<*40aV-plan parametrai>");
MMI("67,0,0,e=M067.M,:<*40aTIMINGSET DEPENDENT SIGNALGROUP TIMES>");
NT("M002.M",7){
D("1340,Valdymo laikrodis/testinis [<pKLC><-4vSF.SYS/CLKC>]");
D("1350,Tikrinti detekcijos aliarma");
D("1360,Atstatyti detekcijos aliarmus");
D("1590,Veikimo rezimas be lempu");
D("1370,Atstatyti klaidas");
D("2470,Rankinis plano pasirinkimas");
D("9990,Simuliacijos rezimas");
}
MMI("9990,9991,12,i1=9993,i2=0xF644");
MMI("9991,9992,10,:Simuliacijos rezimas ?                                  [<pMIMC><-3vSF.SYS/MIMC>]");
MMI("9992,0,9,a1=MIMIC.F");
MMI("9993,0,2,d1=3,t=20");
T("DD.M"){
D(",");
D(",");
D(",<*40aPIN kodas neteisingas>");
}
MMI("2,0,0,e=M002.M,:<*40aFUNKCIJU MENIU>");
NT("M006.M",14){
D("8,I/O statusas");
D("1230,Sistemos statusas");
D("9900,Modulio statusas");
D("3210,Programos versija");
D("3220,Tinklo konfiguracija");
D("26,Eurodetektorius");
D("9050,Systemos veleveles");
D("16,Jungtys");
D("9999,Koordinacija");
D("");
D("1210,Faziu busena(FCS)");
D("1220,Koordinuotos fazes   (FCX)");
D("");
D("");
}
NT("COORD.T",2){
D("NEKOORDINUOTA");
D("KOORDINUOTA");
}
CALL("I1.P","COORD,COORD.T");
MMI("9999,0,6,m=VIEW.M,d1=8");
T("DD.M"){
D(",      LAIKO KOORDINAVIMAS");
D(",Koordinavimo statusas  : <pCOORD><vSF.SYS/252>");
D(",Laikas iki koordinavimo: <pR1><vSF.SYS/253>");
D(",Maks. prailginimas     : <pR1><vSF.SYS/254>");
D(",Aktyvus planas         : <pR1><vSF.SYS/250>");
D(",Ciklas                 : <pR1><vSF.SYS/251>");
D(",Poslinkis(Offset)      : <pR1><vSF.SYS/255>");
}
MMI("6,0,0,e=M006.M,:<*40aSERVISAS>");
NT("EDA4.M",15){
D("B0,PIR","B1,ANT","B2,TRE","B3,KET","B4,PEN","B5,SES","B6,SEK","B7,D01","B8,D02","B9,D03");
D("B10,D04","B11,D05","B12,D06","B13,D07","B14,D08");
}
NT("MDAY4.T",1){
D("-MTWTFSS78901234");
}
CALL("M1.P","MDAY4,MDAY4.T");
MMI("6740,0,5,m=VIDM1.M,d1=7");
T("DD.M"){
D(",<-2t*I1.I>");
D("E10.M,<pMTCF><3v*MTCF.R1>");
D("EDA4.M,<pMDAY4><-15v*MTCD.R30>");
D("EHM.M,<pHM><v*MTCTS.R11>");
D("EHM.M,<pHM><v*MTCTE.R11>");
D("E10.M,<3v*MTCA1.R1>");
D("E10.M,<3v*MTCA2.R1>");
}
T("CD.M"){
D("MTC");
D("FNC");
D("DAYS MASK");
D("START");
D("END");
D("ARG1");
D("ARG2");
}
MMI("6750,0,5,m=VIDM1.M,d1=3");
T("DD.M"){
D(",<-2t*I1.I>");
D("EYMD.M,<pYMD><v*MTCYD.R12>");
D("E10.M,<4v*MTCYG.R1>");
}
T("CD.M"){
D("ID");
D("DATE");
D("GROUP");
}
NT("M005.M",6){
D("28,Signaliniu grupiu laikas");
D("2200,Detekcijos nustatymai");
D("57,V-plan parametrai");
D("2370,Vartotojo parametrai");
D("6740,Kalendorius MTC");
D("6750,Specialios dienos - MTC");
}
MMI("5,0,0,e=M005.M,:<*40aPARAMETRAI>");
